DECOD/=tb_decod.vcd
$date
  Wed Dec 13 00:58:45 2023
$end
$version
  GHDL v0
$end
$timescale
  1 fs
$end
$scope module standard $end
$upscope $end
$scope module std_logic_1164 $end
$upscope $end
$scope module numeric_std $end
$upscope $end
$scope module tb_decod $end
$var reg 32 ! dec_op1[31:0] $end
$var reg 32 " dec_op2[31:0] $end
$var reg 4 # dec_exe_dest[3:0] $end
$var reg 1 $ dec_exe_wb $end
$var reg 1 % dec_flag_wb $end
$var reg 32 & dec_mem_data[31:0] $end
$var reg 4 ' dec_mem_dest[3:0] $end
$var reg 1 ( dec_pre_index $end
$var reg 1 ) dec_mem_lw $end
$var reg 1 * dec_mem_lb $end
$var reg 1 + dec_mem_sw $end
$var reg 1 , dec_mem_sb $end
$var reg 1 - dec_shift_lsl $end
$var reg 1 . dec_shift_lsr $end
$var reg 1 / dec_shift_asr $end
$var reg 1 0 dec_shift_ror $end
$var reg 1 1 dec_shift_rrx $end
$var reg 5 2 dec_shift_val[4:0] $end
$var reg 1 3 dec_cy $end
$var reg 1 4 dec_comp_op1 $end
$var reg 1 5 dec_comp_op2 $end
$var reg 1 6 dec_alu_cy $end
$var reg 1 7 dec2exe_empty $end
$var reg 1 8 exe_pop $end
$var reg 2 9 dec_alu_cmd[1:0] $end
$var reg 32 : exe_res[31:0] $end
$var reg 1 ; exe_c $end
$var reg 1 < exe_v $end
$var reg 1 = exe_n $end
$var reg 1 > exe_z $end
$var reg 4 ? exe_dest[3:0] $end
$var reg 1 @ exe_wb $end
$var reg 1 A exe_flag_wb $end
$var reg 32 B dec_pc[31:0] $end
$var reg 32 C if_ir[31:0] $end
$var reg 1 D dec2if_empty $end
$var reg 1 E if_pop $end
$var reg 1 F if2dec_empty $end
$var reg 1 G dec_pop $end
$var reg 32 H mem_res[31:0] $end
$var reg 4 I mem_dest[3:0] $end
$var reg 1 J mem_wb $end
$var reg 1 K ck $end
$var reg 1 L reset_n $end
$var reg 1 M vdd $end
$var reg 1 N vss $end
$scope module decodsim $end
$var reg 32 O dec_op1[31:0] $end
$var reg 32 P dec_op2[31:0] $end
$var reg 4 Q dec_exe_dest[3:0] $end
$var reg 1 R dec_exe_wb $end
$var reg 1 S dec_flag_wb $end
$var reg 32 T dec_mem_data[31:0] $end
$var reg 4 U dec_mem_dest[3:0] $end
$var reg 1 V dec_pre_index $end
$var reg 1 W dec_mem_lw $end
$var reg 1 X dec_mem_lb $end
$var reg 1 Y dec_mem_sw $end
$var reg 1 Z dec_mem_sb $end
$var reg 1 [ dec_shift_lsl $end
$var reg 1 \ dec_shift_lsr $end
$var reg 1 ] dec_shift_asr $end
$var reg 1 ^ dec_shift_ror $end
$var reg 1 _ dec_shift_rrx $end
$var reg 5 ` dec_shift_val[4:0] $end
$var reg 1 a dec_cy $end
$var reg 1 b dec_comp_op1 $end
$var reg 1 c dec_comp_op2 $end
$var reg 1 d dec_alu_cy $end
$var reg 1 e dec2exe_empty $end
$var reg 1 f exe_pop $end
$var reg 2 g dec_alu_cmd[1:0] $end
$var reg 32 h exe_res[31:0] $end
$var reg 1 i exe_c $end
$var reg 1 j exe_v $end
$var reg 1 k exe_n $end
$var reg 1 l exe_z $end
$var reg 4 m exe_dest[3:0] $end
$var reg 1 n exe_wb $end
$var reg 1 o exe_flag_wb $end
$var reg 32 p dec_pc[31:0] $end
$var reg 32 q if_ir[31:0] $end
$var reg 1 r dec2if_empty $end
$var reg 1 s if_pop $end
$var reg 1 t if2dec_empty $end
$var reg 1 u dec_pop $end
$var reg 32 v mem_res[31:0] $end
$var reg 4 w mem_dest[3:0] $end
$var reg 1 x mem_wb $end
$var reg 1 y ck $end
$var reg 1 z reset_n $end
$var reg 1 { vdd $end
$var reg 1 | vss $end
$var reg 1 } cond $end
$var reg 1 !" condv $end
$var reg 1 "" operv $end
$var reg 1 #" op1v $end
$var reg 1 $" op2v $end
$var reg 1 %" op3v $end
$var reg 1 &" regop_t $end
$var reg 1 '" mult_t $end
$var reg 1 (" swap_t $end
$var reg 1 )" trans_t $end
$var reg 1 *" mtrans_t $end
$var reg 1 +" branch_t $end
$var reg 1 ," and_i $end
$var reg 1 -" eor_i $end
$var reg 1 ." sub_i $end
$var reg 1 /" rsb_i $end
$var reg 1 0" add_i $end
$var reg 1 1" adc_i $end
$var reg 1 2" sbc_i $end
$var reg 1 3" rsc_i $end
$var reg 1 4" tst_i $end
$var reg 1 5" teq_i $end
$var reg 1 6" cmp_i $end
$var reg 1 7" cmn_i $end
$var reg 1 8" orr_i $end
$var reg 1 9" mov_i $end
$var reg 1 :" bic_i $end
$var reg 1 ;" mvn_i $end
$var reg 1 <" mul_i $end
$var reg 1 =" mla_i $end
$var reg 1 >" ldr_i $end
$var reg 1 ?" str_i $end
$var reg 1 @" ldrb_i $end
$var reg 1 A" strb_i $end
$var reg 1 B" ldm_i $end
$var reg 1 C" stm_i $end
$var reg 1 D" b_i $end
$var reg 1 E" bl_i $end
$var reg 1 F" blink $end
$var reg 1 G" mtrans_shift $end
$var reg 16 H" mtrans_mask_shift[15:0] $end
$var reg 16 I" mtrans_mask[15:0] $end
$var reg 16 J" mtrans_list[15:0] $end
$var reg 1 K" mtrans_1un $end
$var reg 1 L" mtrans_loop_adr $end
$var reg 5 M" mtrans_nbr[4:0] $end
$var reg 4 N" mtrans_rd[3:0] $end
$var reg 4 O" radr1[3:0] $end
$var reg 32 P" rdata1[31:0] $end
$var reg 1 Q" rvalid1 $end
$var reg 4 R" radr2[3:0] $end
$var reg 32 S" rdata2[31:0] $end
$var reg 1 T" rvalid2 $end
$var reg 4 U" radr3[3:0] $end
$var reg 32 V" rdata3[31:0] $end
$var reg 1 W" rvalid3 $end
$var reg 4 X" inval_exe_adr[3:0] $end
$var reg 1 Y" inval_exe $end
$var reg 4 Z" inval_mem_adr[3:0] $end
$var reg 1 [" inval_mem $end
$var reg 1 \" cry $end
$var reg 1 ]" zero $end
$var reg 1 ^" neg $end
$var reg 1 _" ovr $end
$var reg 1 `" reg_cznv $end
$var reg 1 a" reg_vv $end
$var reg 1 b" inval_czn $end
$var reg 1 c" inval_ovr $end
$var reg 32 d" reg_pc[31:0] $end
$var reg 1 e" reg_pcv $end
$var reg 1 f" inc_pc $end
$var reg 1 g" dec2if_full $end
$var reg 1 h" dec2if_push $end
$var reg 1 i" dec2exe_full $end
$var reg 1 j" dec2exe_push $end
$var reg 1 k" if2dec_pop $end
$var reg 32 l" op1[31:0] $end
$var reg 32 m" op2[31:0] $end
$var reg 4 n" alu_dest[3:0] $end
$var reg 1 o" alu_wb $end
$var reg 1 p" flag_wb $end
$var reg 32 q" offset32[31:0] $end
$var reg 32 r" mem_data[31:0] $end
$var reg 4 s" ld_dest[3:0] $end
$var reg 1 t" pre_index $end
$var reg 1 u" mem_lw $end
$var reg 1 v" mem_lb $end
$var reg 1 w" mem_sw $end
$var reg 1 x" mem_sb $end
$var reg 1 y" shift_lsl $end
$var reg 1 z" shift_lsr $end
$var reg 1 {" shift_asr $end
$var reg 1 |" shift_ror $end
$var reg 1 }" shift_rrx $end
$var reg 5 !# shift_val[4:0] $end
$var reg 1 "# cy $end
$var reg 1 ## comp_op1 $end
$var reg 1 $# comp_op2 $end
$var reg 1 %# alu_cy $end
$var reg 2 &# alu_cmd[1:0] $end
$comment cur_state is not handled $end
$comment next_state is not handled $end
$var reg 4 '# debug_state[3:0] $end
$scope module dec2exec $end
$var reg 127 (# din[126:0] $end
$var reg 127 )# dout[126:0] $end
$var reg 1 *# push $end
$var reg 1 +# pop $end
$var reg 1 ,# full $end
$var reg 1 -# empty $end
$var reg 1 .# reset_n $end
$var reg 1 /# ck $end
$var reg 1 0# vdd $end
$var reg 1 1# vss $end
$var reg 127 2# fifo_d[126:0] $end
$var reg 1 3# fifo_v $end
$upscope $end
$scope module dec2if $end
$var reg 32 4# din[31:0] $end
$var reg 32 5# dout[31:0] $end
$var reg 1 6# push $end
$var reg 1 7# pop $end
$var reg 1 8# full $end
$var reg 1 9# empty $end
$var reg 1 :# reset_n $end
$var reg 1 ;# ck $end
$var reg 1 <# vdd $end
$var reg 1 =# vss $end
$var reg 32 ># fifo_d[31:0] $end
$var reg 1 ?# fifo_v $end
$upscope $end
$scope module reg_inst $end
$var reg 32 @# wdata1[31:0] $end
$var reg 4 A# wadr1[3:0] $end
$var reg 1 B# wen1 $end
$var reg 32 C# wdata2[31:0] $end
$var reg 4 D# wadr2[3:0] $end
$var reg 1 E# wen2 $end
$var reg 1 F# wcry $end
$var reg 1 G# wzero $end
$var reg 1 H# wneg $end
$var reg 1 I# wovr $end
$var reg 1 J# cspr_wb $end
$var reg 32 K# reg_rd1[31:0] $end
$var reg 4 L# radr1[3:0] $end
$var reg 1 M# reg_v1 $end
$var reg 32 N# reg_rd2[31:0] $end
$var reg 4 O# radr2[3:0] $end
$var reg 1 P# reg_v2 $end
$var reg 32 Q# reg_rd3[31:0] $end
$var reg 4 R# radr3[3:0] $end
$var reg 1 S# reg_v3 $end
$var reg 1 T# reg_cry $end
$var reg 1 U# reg_zero $end
$var reg 1 V# reg_neg $end
$var reg 1 W# reg_cznv $end
$var reg 1 X# reg_ovr $end
$var reg 1 Y# reg_vv $end
$var reg 4 Z# inval_adr1[3:0] $end
$var reg 1 [# inval1 $end
$var reg 4 \# inval_adr2[3:0] $end
$var reg 1 ]# inval2 $end
$var reg 1 ^# inval_czn $end
$var reg 1 _# inval_ovr $end
$var reg 32 `# reg_pc[31:0] $end
$var reg 1 a# reg_pcv $end
$var reg 1 b# inc_pc $end
$var reg 1 c# ck $end
$var reg 1 d# reset_n $end
$var reg 1 e# vdd $end
$var reg 1 f# vss $end
$comment r_data is not handled $end
$var reg 16 g# r_valid[0:15] $end
$var reg 32 h# pcinc4[31:0] $end
$var reg 1 i# cznv_valid $end
$var reg 1 j# v_valid $end
$scope module incpc $end
$var reg 32 k# a[31:0] $end
$var reg 32 l# b[31:0] $end
$var reg 1 m# cin $end
$var reg 32 n# s[31:0] $end
$var reg 1 o# cout $end
$var reg 1 p# c1 $end
$var reg 1 q# c2 $end
$var reg 1 r# c3 $end
$var reg 1 s# c4 $end
$var reg 1 t# c5 $end
$var reg 1 u# c6 $end
$var reg 1 v# c7 $end
$scope module add_4bit_0 $end
$var reg 4 w# a[3:0] $end
$var reg 4 x# b[3:0] $end
$var reg 1 y# cin $end
$var reg 4 z# s[3:0] $end
$var reg 1 {# cout $end
$var reg 1 |# c1 $end
$var reg 1 }# c2 $end
$var reg 1 !$ c3 $end
$scope module fa1 $end
$var reg 1 "$ a $end
$var reg 1 #$ b $end
$var reg 1 $$ cin $end
$var reg 1 %$ s $end
$var reg 1 &$ cout $end
$upscope $end
$scope module fa2 $end
$var reg 1 '$ a $end
$var reg 1 ($ b $end
$var reg 1 )$ cin $end
$var reg 1 *$ s $end
$var reg 1 +$ cout $end
$upscope $end
$scope module fa3 $end
$var reg 1 ,$ a $end
$var reg 1 -$ b $end
$var reg 1 .$ cin $end
$var reg 1 /$ s $end
$var reg 1 0$ cout $end
$upscope $end
$scope module fa4 $end
$var reg 1 1$ a $end
$var reg 1 2$ b $end
$var reg 1 3$ cin $end
$var reg 1 4$ s $end
$var reg 1 5$ cout $end
$upscope $end
$upscope $end
$scope module add_4bit_1 $end
$var reg 4 6$ a[3:0] $end
$var reg 4 7$ b[3:0] $end
$var reg 1 8$ cin $end
$var reg 4 9$ s[3:0] $end
$var reg 1 :$ cout $end
$var reg 1 ;$ c1 $end
$var reg 1 <$ c2 $end
$var reg 1 =$ c3 $end
$scope module fa1 $end
$var reg 1 >$ a $end
$var reg 1 ?$ b $end
$var reg 1 @$ cin $end
$var reg 1 A$ s $end
$var reg 1 B$ cout $end
$upscope $end
$scope module fa2 $end
$var reg 1 C$ a $end
$var reg 1 D$ b $end
$var reg 1 E$ cin $end
$var reg 1 F$ s $end
$var reg 1 G$ cout $end
$upscope $end
$scope module fa3 $end
$var reg 1 H$ a $end
$var reg 1 I$ b $end
$var reg 1 J$ cin $end
$var reg 1 K$ s $end
$var reg 1 L$ cout $end
$upscope $end
$scope module fa4 $end
$var reg 1 M$ a $end
$var reg 1 N$ b $end
$var reg 1 O$ cin $end
$var reg 1 P$ s $end
$var reg 1 Q$ cout $end
$upscope $end
$upscope $end
$scope module add_4bit_2 $end
$var reg 4 R$ a[3:0] $end
$var reg 4 S$ b[3:0] $end
$var reg 1 T$ cin $end
$var reg 4 U$ s[3:0] $end
$var reg 1 V$ cout $end
$var reg 1 W$ c1 $end
$var reg 1 X$ c2 $end
$var reg 1 Y$ c3 $end
$scope module fa1 $end
$var reg 1 Z$ a $end
$var reg 1 [$ b $end
$var reg 1 \$ cin $end
$var reg 1 ]$ s $end
$var reg 1 ^$ cout $end
$upscope $end
$scope module fa2 $end
$var reg 1 _$ a $end
$var reg 1 `$ b $end
$var reg 1 a$ cin $end
$var reg 1 b$ s $end
$var reg 1 c$ cout $end
$upscope $end
$scope module fa3 $end
$var reg 1 d$ a $end
$var reg 1 e$ b $end
$var reg 1 f$ cin $end
$var reg 1 g$ s $end
$var reg 1 h$ cout $end
$upscope $end
$scope module fa4 $end
$var reg 1 i$ a $end
$var reg 1 j$ b $end
$var reg 1 k$ cin $end
$var reg 1 l$ s $end
$var reg 1 m$ cout $end
$upscope $end
$upscope $end
$scope module add_4bit_3 $end
$var reg 4 n$ a[3:0] $end
$var reg 4 o$ b[3:0] $end
$var reg 1 p$ cin $end
$var reg 4 q$ s[3:0] $end
$var reg 1 r$ cout $end
$var reg 1 s$ c1 $end
$var reg 1 t$ c2 $end
$var reg 1 u$ c3 $end
$scope module fa1 $end
$var reg 1 v$ a $end
$var reg 1 w$ b $end
$var reg 1 x$ cin $end
$var reg 1 y$ s $end
$var reg 1 z$ cout $end
$upscope $end
$scope module fa2 $end
$var reg 1 {$ a $end
$var reg 1 |$ b $end
$var reg 1 }$ cin $end
$var reg 1 !% s $end
$var reg 1 "% cout $end
$upscope $end
$scope module fa3 $end
$var reg 1 #% a $end
$var reg 1 $% b $end
$var reg 1 %% cin $end
$var reg 1 &% s $end
$var reg 1 '% cout $end
$upscope $end
$scope module fa4 $end
$var reg 1 (% a $end
$var reg 1 )% b $end
$var reg 1 *% cin $end
$var reg 1 +% s $end
$var reg 1 ,% cout $end
$upscope $end
$upscope $end
$scope module add_4bit_4 $end
$var reg 4 -% a[3:0] $end
$var reg 4 .% b[3:0] $end
$var reg 1 /% cin $end
$var reg 4 0% s[3:0] $end
$var reg 1 1% cout $end
$var reg 1 2% c1 $end
$var reg 1 3% c2 $end
$var reg 1 4% c3 $end
$scope module fa1 $end
$var reg 1 5% a $end
$var reg 1 6% b $end
$var reg 1 7% cin $end
$var reg 1 8% s $end
$var reg 1 9% cout $end
$upscope $end
$scope module fa2 $end
$var reg 1 :% a $end
$var reg 1 ;% b $end
$var reg 1 <% cin $end
$var reg 1 =% s $end
$var reg 1 >% cout $end
$upscope $end
$scope module fa3 $end
$var reg 1 ?% a $end
$var reg 1 @% b $end
$var reg 1 A% cin $end
$var reg 1 B% s $end
$var reg 1 C% cout $end
$upscope $end
$scope module fa4 $end
$var reg 1 D% a $end
$var reg 1 E% b $end
$var reg 1 F% cin $end
$var reg 1 G% s $end
$var reg 1 H% cout $end
$upscope $end
$upscope $end
$scope module add_4bit_5 $end
$var reg 4 I% a[3:0] $end
$var reg 4 J% b[3:0] $end
$var reg 1 K% cin $end
$var reg 4 L% s[3:0] $end
$var reg 1 M% cout $end
$var reg 1 N% c1 $end
$var reg 1 O% c2 $end
$var reg 1 P% c3 $end
$scope module fa1 $end
$var reg 1 Q% a $end
$var reg 1 R% b $end
$var reg 1 S% cin $end
$var reg 1 T% s $end
$var reg 1 U% cout $end
$upscope $end
$scope module fa2 $end
$var reg 1 V% a $end
$var reg 1 W% b $end
$var reg 1 X% cin $end
$var reg 1 Y% s $end
$var reg 1 Z% cout $end
$upscope $end
$scope module fa3 $end
$var reg 1 [% a $end
$var reg 1 \% b $end
$var reg 1 ]% cin $end
$var reg 1 ^% s $end
$var reg 1 _% cout $end
$upscope $end
$scope module fa4 $end
$var reg 1 `% a $end
$var reg 1 a% b $end
$var reg 1 b% cin $end
$var reg 1 c% s $end
$var reg 1 d% cout $end
$upscope $end
$upscope $end
$scope module add_4bit_6 $end
$var reg 4 e% a[3:0] $end
$var reg 4 f% b[3:0] $end
$var reg 1 g% cin $end
$var reg 4 h% s[3:0] $end
$var reg 1 i% cout $end
$var reg 1 j% c1 $end
$var reg 1 k% c2 $end
$var reg 1 l% c3 $end
$scope module fa1 $end
$var reg 1 m% a $end
$var reg 1 n% b $end
$var reg 1 o% cin $end
$var reg 1 p% s $end
$var reg 1 q% cout $end
$upscope $end
$scope module fa2 $end
$var reg 1 r% a $end
$var reg 1 s% b $end
$var reg 1 t% cin $end
$var reg 1 u% s $end
$var reg 1 v% cout $end
$upscope $end
$scope module fa3 $end
$var reg 1 w% a $end
$var reg 1 x% b $end
$var reg 1 y% cin $end
$var reg 1 z% s $end
$var reg 1 {% cout $end
$upscope $end
$scope module fa4 $end
$var reg 1 |% a $end
$var reg 1 }% b $end
$var reg 1 !& cin $end
$var reg 1 "& s $end
$var reg 1 #& cout $end
$upscope $end
$upscope $end
$scope module add_4bit_7 $end
$var reg 4 $& a[3:0] $end
$var reg 4 %& b[3:0] $end
$var reg 1 && cin $end
$var reg 4 '& s[3:0] $end
$var reg 1 (& cout $end
$var reg 1 )& c1 $end
$var reg 1 *& c2 $end
$var reg 1 +& c3 $end
$scope module fa1 $end
$var reg 1 ,& a $end
$var reg 1 -& b $end
$var reg 1 .& cin $end
$var reg 1 /& s $end
$var reg 1 0& cout $end
$upscope $end
$scope module fa2 $end
$var reg 1 1& a $end
$var reg 1 2& b $end
$var reg 1 3& cin $end
$var reg 1 4& s $end
$var reg 1 5& cout $end
$upscope $end
$scope module fa3 $end
$var reg 1 6& a $end
$var reg 1 7& b $end
$var reg 1 8& cin $end
$var reg 1 9& s $end
$var reg 1 :& cout $end
$upscope $end
$scope module fa4 $end
$var reg 1 ;& a $end
$var reg 1 <& b $end
$var reg 1 =& cin $end
$var reg 1 >& s $end
$var reg 1 ?& cout $end
$upscope $end
$upscope $end
$upscope $end
$scope module gen(0) $end
$upscope $end
$scope module gen(1) $end
$upscope $end
$scope module gen(2) $end
$upscope $end
$scope module gen(3) $end
$upscope $end
$scope module gen(4) $end
$upscope $end
$scope module gen(5) $end
$upscope $end
$scope module gen(6) $end
$upscope $end
$scope module gen(7) $end
$upscope $end
$scope module gen(8) $end
$upscope $end
$scope module gen(9) $end
$upscope $end
$scope module gen(10) $end
$upscope $end
$scope module gen(11) $end
$upscope $end
$scope module gen(12) $end
$upscope $end
$scope module gen(13) $end
$upscope $end
$scope module gen(14) $end
$upscope $end
$scope module gen(15) $end
$upscope $end
$upscope $end
$upscope $end
$upscope $end
$enddefinitions $end
#0
bUUUUUUUUUUUUUUUUUUUUUUUUUUUUUUUU !
bUUUUUUUUUUUUUUUUUUUUUUUUUUUUUUUU "
bUUUU #
U$
U%
bUUUUUUUUUUUUUUUUUUUUUUUUUUUUUUUU &
bUUUU '
U(
U)
U*
U+
U,
U-
U.
U/
U0
U1
bUUUUU 2
U3
U4
U5
U6
U7
U8
bUU 9
bUUUUUUUUUUUUUUUUUUUUUUUUUUUUUUUU :
U;
U<
U=
U>
bUUUU ?
U@
UA
bUUUUUUUUUUUUUUUUUUUUUUUUUUUUUUUU B
bUUUUUUUUUUUUUUUUUUUUUUUUUUUUUUUU C
UD
UE
UF
0G
bUUUUUUUUUUUUUUUUUUUUUUUUUUUUUUUU H
bUUUU I
UJ
0K
UL
0M
0N
bUUUUUUUUUUUUUUUUUUUUUUUUUUUUUUUU O
bUUUUUUUUUUUUUUUUUUUUUUUUUUUUUUUU P
bUUUU Q
UR
US
bUUUUUUUUUUUUUUUUUUUUUUUUUUUUUUUU T
bUUUU U
UV
UW
UX
UY
UZ
U[
U\
U]
U^
U_
bUUUUU `
Ua
Ub
Uc
Ud
Ue
Uf
bUU g
bUUUUUUUUUUUUUUUUUUUUUUUUUUUUUUUU h
Ui
Uj
Uk
Ul
bUUUU m
Un
Uo
bUUUUUUUUUUUUUUUUUUUUUUUUUUUUUUUU p
bUUUUUUUUUUUUUUUUUUUUUUUUUUUUUUUU q
Ur
Us
Ut
0u
bUUUUUUUUUUUUUUUUUUUUUUUUUUUUUUUU v
bUUUU w
Ux
0y
Uz
0{
0|
0}
U!"
1""
1#"
1$"
1%"
0&"
0'"
0("
0)"
0*"
0+"
0,"
0-"
0."
0/"
00"
01"
02"
03"
04"
05"
06"
07"
08"
09"
0:"
0;"
0<"
0="
0>"
0?"
0@"
0A"
0B"
0C"
0D"
0E"
0F"
0G"
b0000000000000000 H"
bUUUUUUUUUUUUUUUU I"
bUUUUUUUUUUUUUUUU J"
0K"
0L"
bUUUUU M"
b1111 N"
bUUUU O"
b00000000000000000000000000000000 P"
UQ"
bUUUU R"
b00000000000000000000000000000000 S"
UT"
bUUUU U"
b00000000000000000000000000000000 V"
UW"
bUUUU X"
0Y"
b0000 Z"
0["
U\"
U]"
U^"
U_"
U`"
Ua"
0b"
0c"
b00000000000000000000000000000000 d"
Ue"
0f"
0g"
0h"
0i"
0j"
0k"
b00000000000000000000000000000000 l"
b00000000000000000000000000000000 m"
bUUUU n"
0o"
0p"
b11111111UUUUUUUUUUUUUUUUUUUUUUUU q"
bUUUUUUUUUUUUUUUUUUUUUUUUUUUUUUUU r"
bUUUU s"
Ut"
0u"
0v"
0w"
0x"
0y"
0z"
0{"
0|"
0}"
b00000 !#
U"#
0##
0$#
0%#
b00 &#
b0001 '#
bU0000000000000000000000000000000000000000000000000000000000000000UUUU0000000000000000000000000000000000UUUU00000000000000U00000 (#
bUUUUUUUUUUUUUUUUUUUUUUUUUUUUUUUUUUUUUUUUUUUUUUUUUUUUUUUUUUUUUUUUUUUUUUUUUUUUUUUUUUUUUUUUUUUUUUUUUUUUUUUUUUUUUUUUUUUUUUUUUUUUUUU )#
0*#
U+#
0,#
U-#
U.#
0/#
00#
01#
bUUUUUUUUUUUUUUUUUUUUUUUUUUUUUUUUUUUUUUUUUUUUUUUUUUUUUUUUUUUUUUUUUUUUUUUUUUUUUUUUUUUUUUUUUUUUUUUUUUUUUUUUUUUUUUUUUUUUUUUUUUUUUUU 2#
U3#
b00000000000000000000000000000000 4#
bUUUUUUUUUUUUUUUUUUUUUUUUUUUUUUUU 5#
06#
U7#
08#
U9#
U:#
0;#
0<#
0=#
bUUUUUUUUUUUUUUUUUUUUUUUUUUUUUUUU >#
U?#
bUUUUUUUUUUUUUUUUUUUUUUUUUUUUUUUU @#
bUUUU A#
UB#
bUUUUUUUUUUUUUUUUUUUUUUUUUUUUUUUU C#
bUUUU D#
UE#
UF#
UG#
UH#
UI#
UJ#
b00000000000000000000000000000000 K#
bUUUU L#
UM#
b00000000000000000000000000000000 N#
bUUUU O#
UP#
b00000000000000000000000000000000 Q#
bUUUU R#
US#
UT#
UU#
UV#
UW#
UX#
UY#
bUUUU Z#
0[#
b0000 \#
0]#
0^#
0_#
b00000000000000000000000000000000 `#
Ua#
0b#
0c#
Ud#
0e#
0f#
bUUUUUUUUUUUUUUUU g#
b00000000000000000000000000000100 h#
Ui#
Uj#
b00000000000000000000000000000000 k#
b00000000000000000000000000000100 l#
0m#
b00000000000000000000000000000100 n#
0o#
0p#
0q#
0r#
0s#
0t#
0u#
0v#
b0000 w#
b0100 x#
0y#
b0100 z#
0{#
0|#
0}#
0!$
0"$
0#$
0$$
0%$
0&$
0'$
0($
0)$
0*$
0+$
0,$
1-$
0.$
1/$
00$
01$
02$
03$
04$
05$
b0000 6$
b0000 7$
08$
b0000 9$
0:$
0;$
0<$
0=$
0>$
0?$
0@$
0A$
0B$
0C$
0D$
0E$
0F$
0G$
0H$
0I$
0J$
0K$
0L$
0M$
0N$
0O$
0P$
0Q$
b0000 R$
b0000 S$
0T$
b0000 U$
0V$
0W$
0X$
0Y$
0Z$
0[$
0\$
0]$
0^$
0_$
0`$
0a$
0b$
0c$
0d$
0e$
0f$
0g$
0h$
0i$
0j$
0k$
0l$
0m$
b0000 n$
b0000 o$
0p$
b0000 q$
0r$
0s$
0t$
0u$
0v$
0w$
0x$
0y$
0z$
0{$
0|$
0}$
0!%
0"%
0#%
0$%
0%%
0&%
0'%
0(%
0)%
0*%
0+%
0,%
b0000 -%
b0000 .%
0/%
b0000 0%
01%
02%
03%
04%
05%
06%
07%
08%
09%
0:%
0;%
0<%
0=%
0>%
0?%
0@%
0A%
0B%
0C%
0D%
0E%
0F%
0G%
0H%
b0000 I%
b0000 J%
0K%
b0000 L%
0M%
0N%
0O%
0P%
0Q%
0R%
0S%
0T%
0U%
0V%
0W%
0X%
0Y%
0Z%
0[%
0\%
0]%
0^%
0_%
0`%
0a%
0b%
0c%
0d%
b0000 e%
b0000 f%
0g%
b0000 h%
0i%
0j%
0k%
0l%
0m%
0n%
0o%
0p%
0q%
0r%
0s%
0t%
0u%
0v%
0w%
0x%
0y%
0z%
0{%
0|%
0}%
0!&
0"&
0#&
b0000 $&
b0000 %&
0&&
b0000 '&
0(&
0)&
0*&
0+&
0,&
0-&
0.&
0/&
00&
01&
02&
03&
04&
05&
06&
07&
08&
09&
0:&
0;&
0<&
0=&
0>&
0?&
#10000000
07
0D
1K
0e
0r
1y
0-#
1/#
13#
09#
1;#
1?#
1c#
#20000000
X8
0;
0<
0=
0>
1@
0A
1E
0F
b00000000000000000000000000000000 H
b0000 I
0J
0K
Xf
0i
0j
0k
0l
1n
0o
1s
0t
b00000000000000000000000000000000 v
b0000 w
0x
0y
X+#
0/#
17#
0;#
1B#
b00000000000000000000000000000000 C#
b0000 D#
0E#
0F#
0G#
0H#
0I#
0J#
0c#
#30000000
1D
1K
1r
1y
1/#
19#
1;#
0?#
1c#
#40000000
0K
0y
0/#
0;#
0c#
#50000000
b00000000000000000000000100010001 :
b0001 ?
b11100000100001000001011001010111 C
1K
b00000000000000000000000100010001 h
b0001 m
b11100000100001000001011001010111 q
1y
1}
1!"
U""
U#"
U$"
U%"
1&"
10"
b000U0UU00U0U0UUU J"
b0100 O"
b0111 R"
b0110 U"
b0001 X"
1Y"
b0001 n"
1o"
b11111111100001000001011001010111 q"
1{"
bU000000000000000000000000000000000000000000000000000000000000000000011000000000000000000000000000000000UUUU00000010000000U00000 (#
1/#
1;#
b00000000000000000000000100010001 @#
b0001 A#
b0100 L#
b0111 O#
b0110 R#
b0001 Z#
1[#
1c#
#60000000
0K
0y
0/#
0;#
0c#
#70000000
b11100010100000010001000000000010 C
1K
b11100010100000010001000000000010 q
1y
1#"
1%"
b000U0000000000U0 J"
b0001 O"
b00000000000000000000000100010001 P"
1Q"
b0000 U"
b00000000000000000000000100010001 l"
b00000000000000000000000000000010 m"
b11111111100000010001000000000010 q"
0{"
bU000000000000000000000001000100010000000000000000000000000000001000011000000000000000000000000000000000UUUU00000000000000U00000 (#
1/#
1;#
b00000000000000000000000100010001 K#
b0001 L#
1M#
b0000 R#
1c#
bU1UUUUUUUUUUUUUU g#
#80000000
0K
0y
0/#
0;#
0c#
#90000000
b00000000000000000000000001011111 :
b1111 ?
b11101010000000000000000000000011 C
1K
b00000000000000000000000001011111 h
b1111 m
b11101010000000000000000000000011 q
1y
U#"
1$"
0&"
1+"
0,"
10"
1D"
b00000000000000UU J"
b0000 O"
b00000000000000000000000000000000 P"
UQ"
b1111 X"
b00000000000000000000000000000000 l"
b00000000000000000000000000000011 m"
b1111 n"
b00000000000000000000000000000011 q"
1y"
b00010 !#
b00 &#
bU000000000000000000000000000000000000000000000000000000000000001111111000000000000000000000000000000000UUUU00001000000010U00000 (#
1/#
1;#
b00000000000000000000000001011111 @#
b1111 A#
b00000000000000000000000000000000 K#
b0000 L#
UM#
b1111 Z#
1c#
bU0UUUUUUUUUUUUUU g#
#100000000
0K
0y
0/#
0;#
0c#
#110000000
b0010 ?
b11100010100011110001000000000010 C
1K
b0010 m
b11100010100011110001000000000010 q
1y
0""
0#"
U$"
1&"
0+"
0D"
b000U0000000000U0 J"
b1111 O"
0Q"
b0001 X"
0e"
b00000000000000000000000000000010 m"
b0001 n"
b11111111100011110001000000000010 q"
0y"
b00000 !#
bU000000000000000000000000000000000000000000000000000000000000001000011000000000000000000000000000000000UUUU00000000000000U00000 (#
1/#
1;#
b0010 A#
b1111 L#
0M#
b0001 Z#
0a#
1c#
bU0UUUUUUUUUUUUU0 g#
