ALU/alu.vcd
$date
  Wed Oct 18 12:24:19 2023
$end
$version
  GHDL v0
$end
$timescale
  1 fs
$end
$var reg 32 ! op1_tb[31:0] $end
$var reg 32 " op2_tb[31:0] $end
$var reg 1 # cin_tb $end
$var reg 2 $ cmd_tb[1:0] $end
$var reg 32 % res_tb[31:0] $end
$var reg 1 & cout_tb $end
$var reg 1 ' z_tb $end
$var reg 1 ( n_tb $end
$var reg 1 ) v_tb $end
$var reg 1 * vdd_tb $end
$var reg 1 + vss_tb $end
$scope module uut $end
$var reg 32 , op1[31:0] $end
$var reg 32 - op2[31:0] $end
$var reg 1 . cin $end
$var reg 2 / cmd[1:0] $end
$var reg 32 0 res[31:0] $end
$var reg 1 1 cout $end
$var reg 1 2 z $end
$var reg 1 3 n $end
$var reg 1 4 v $end
$var reg 1 5 vdd $end
$var reg 1 6 vss $end
$var reg 32 7 res_temp[31:0] $end
$var reg 32 8 s_temp[31:0] $end
$var reg 1 9 cout_temp $end
$scope module add_32b_inst $end
$var reg 32 : a[31:0] $end
$var reg 32 ; b[31:0] $end
$var reg 1 < cin $end
$var reg 32 = s[31:0] $end
$var reg 1 > cout $end
$var reg 1 ? c1 $end
$var reg 1 @ c2 $end
$var reg 1 A c3 $end
$var reg 1 B c4 $end
$var reg 1 C c5 $end
$var reg 1 D c6 $end
$var reg 1 E c7 $end
$scope module add_4bit_0 $end
$var reg 4 F a[3:0] $end
$var reg 4 G b[3:0] $end
$var reg 1 H cin $end
$var reg 4 I s[3:0] $end
$var reg 1 J cout $end
$var reg 1 K c1 $end
$var reg 1 L c2 $end
$var reg 1 M c3 $end
$scope module fa1 $end
$var reg 1 N a $end
$var reg 1 O b $end
$var reg 1 P cin $end
$var reg 1 Q s $end
$var reg 1 R cout $end
$upscope $end
$scope module fa2 $end
$var reg 1 S a $end
$var reg 1 T b $end
$var reg 1 U cin $end
$var reg 1 V s $end
$var reg 1 W cout $end
$upscope $end
$scope module fa3 $end
$var reg 1 X a $end
$var reg 1 Y b $end
$var reg 1 Z cin $end
$var reg 1 [ s $end
$var reg 1 \ cout $end
$upscope $end
$scope module fa4 $end
$var reg 1 ] a $end
$var reg 1 ^ b $end
$var reg 1 _ cin $end
$var reg 1 ` s $end
$var reg 1 a cout $end
$upscope $end
$upscope $end
$scope module add_4bit_1 $end
$var reg 4 b a[3:0] $end
$var reg 4 c b[3:0] $end
$var reg 1 d cin $end
$var reg 4 e s[3:0] $end
$var reg 1 f cout $end
$var reg 1 g c1 $end
$var reg 1 h c2 $end
$var reg 1 i c3 $end
$scope module fa1 $end
$var reg 1 j a $end
$var reg 1 k b $end
$var reg 1 l cin $end
$var reg 1 m s $end
$var reg 1 n cout $end
$upscope $end
$scope module fa2 $end
$var reg 1 o a $end
$var reg 1 p b $end
$var reg 1 q cin $end
$var reg 1 r s $end
$var reg 1 s cout $end
$upscope $end
$scope module fa3 $end
$var reg 1 t a $end
$var reg 1 u b $end
$var reg 1 v cin $end
$var reg 1 w s $end
$var reg 1 x cout $end
$upscope $end
$scope module fa4 $end
$var reg 1 y a $end
$var reg 1 z b $end
$var reg 1 { cin $end
$var reg 1 | s $end
$var reg 1 } cout $end
$upscope $end
$upscope $end
$scope module add_4bit_2 $end
$var reg 4 !" a[3:0] $end
$var reg 4 "" b[3:0] $end
$var reg 1 #" cin $end
$var reg 4 $" s[3:0] $end
$var reg 1 %" cout $end
$var reg 1 &" c1 $end
$var reg 1 '" c2 $end
$var reg 1 (" c3 $end
$scope module fa1 $end
$var reg 1 )" a $end
$var reg 1 *" b $end
$var reg 1 +" cin $end
$var reg 1 ," s $end
$var reg 1 -" cout $end
$upscope $end
$scope module fa2 $end
$var reg 1 ." a $end
$var reg 1 /" b $end
$var reg 1 0" cin $end
$var reg 1 1" s $end
$var reg 1 2" cout $end
$upscope $end
$scope module fa3 $end
$var reg 1 3" a $end
$var reg 1 4" b $end
$var reg 1 5" cin $end
$var reg 1 6" s $end
$var reg 1 7" cout $end
$upscope $end
$scope module fa4 $end
$var reg 1 8" a $end
$var reg 1 9" b $end
$var reg 1 :" cin $end
$var reg 1 ;" s $end
$var reg 1 <" cout $end
$upscope $end
$upscope $end
$scope module add_4bit_3 $end
$var reg 4 =" a[3:0] $end
$var reg 4 >" b[3:0] $end
$var reg 1 ?" cin $end
$var reg 4 @" s[3:0] $end
$var reg 1 A" cout $end
$var reg 1 B" c1 $end
$var reg 1 C" c2 $end
$var reg 1 D" c3 $end
$scope module fa1 $end
$var reg 1 E" a $end
$var reg 1 F" b $end
$var reg 1 G" cin $end
$var reg 1 H" s $end
$var reg 1 I" cout $end
$upscope $end
$scope module fa2 $end
$var reg 1 J" a $end
$var reg 1 K" b $end
$var reg 1 L" cin $end
$var reg 1 M" s $end
$var reg 1 N" cout $end
$upscope $end
$scope module fa3 $end
$var reg 1 O" a $end
$var reg 1 P" b $end
$var reg 1 Q" cin $end
$var reg 1 R" s $end
$var reg 1 S" cout $end
$upscope $end
$scope module fa4 $end
$var reg 1 T" a $end
$var reg 1 U" b $end
$var reg 1 V" cin $end
$var reg 1 W" s $end
$var reg 1 X" cout $end
$upscope $end
$upscope $end
$scope module add_4bit_4 $end
$var reg 4 Y" a[3:0] $end
$var reg 4 Z" b[3:0] $end
$var reg 1 [" cin $end
$var reg 4 \" s[3:0] $end
$var reg 1 ]" cout $end
$var reg 1 ^" c1 $end
$var reg 1 _" c2 $end
$var reg 1 `" c3 $end
$scope module fa1 $end
$var reg 1 a" a $end
$var reg 1 b" b $end
$var reg 1 c" cin $end
$var reg 1 d" s $end
$var reg 1 e" cout $end
$upscope $end
$scope module fa2 $end
$var reg 1 f" a $end
$var reg 1 g" b $end
$var reg 1 h" cin $end
$var reg 1 i" s $end
$var reg 1 j" cout $end
$upscope $end
$scope module fa3 $end
$var reg 1 k" a $end
$var reg 1 l" b $end
$var reg 1 m" cin $end
$var reg 1 n" s $end
$var reg 1 o" cout $end
$upscope $end
$scope module fa4 $end
$var reg 1 p" a $end
$var reg 1 q" b $end
$var reg 1 r" cin $end
$var reg 1 s" s $end
$var reg 1 t" cout $end
$upscope $end
$upscope $end
$scope module add_4bit_5 $end
$var reg 4 u" a[3:0] $end
$var reg 4 v" b[3:0] $end
$var reg 1 w" cin $end
$var reg 4 x" s[3:0] $end
$var reg 1 y" cout $end
$var reg 1 z" c1 $end
$var reg 1 {" c2 $end
$var reg 1 |" c3 $end
$scope module fa1 $end
$var reg 1 }" a $end
$var reg 1 !# b $end
$var reg 1 "# cin $end
$var reg 1 ## s $end
$var reg 1 $# cout $end
$upscope $end
$scope module fa2 $end
$var reg 1 %# a $end
$var reg 1 &# b $end
$var reg 1 '# cin $end
$var reg 1 (# s $end
$var reg 1 )# cout $end
$upscope $end
$scope module fa3 $end
$var reg 1 *# a $end
$var reg 1 +# b $end
$var reg 1 ,# cin $end
$var reg 1 -# s $end
$var reg 1 .# cout $end
$upscope $end
$scope module fa4 $end
$var reg 1 /# a $end
$var reg 1 0# b $end
$var reg 1 1# cin $end
$var reg 1 2# s $end
$var reg 1 3# cout $end
$upscope $end
$upscope $end
$scope module add_4bit_6 $end
$var reg 4 4# a[3:0] $end
$var reg 4 5# b[3:0] $end
$var reg 1 6# cin $end
$var reg 4 7# s[3:0] $end
$var reg 1 8# cout $end
$var reg 1 9# c1 $end
$var reg 1 :# c2 $end
$var reg 1 ;# c3 $end
$scope module fa1 $end
$var reg 1 <# a $end
$var reg 1 =# b $end
$var reg 1 ># cin $end
$var reg 1 ?# s $end
$var reg 1 @# cout $end
$upscope $end
$scope module fa2 $end
$var reg 1 A# a $end
$var reg 1 B# b $end
$var reg 1 C# cin $end
$var reg 1 D# s $end
$var reg 1 E# cout $end
$upscope $end
$scope module fa3 $end
$var reg 1 F# a $end
$var reg 1 G# b $end
$var reg 1 H# cin $end
$var reg 1 I# s $end
$var reg 1 J# cout $end
$upscope $end
$scope module fa4 $end
$var reg 1 K# a $end
$var reg 1 L# b $end
$var reg 1 M# cin $end
$var reg 1 N# s $end
$var reg 1 O# cout $end
$upscope $end
$upscope $end
$scope module add_4bit_7 $end
$var reg 4 P# a[3:0] $end
$var reg 4 Q# b[3:0] $end
$var reg 1 R# cin $end
$var reg 4 S# s[3:0] $end
$var reg 1 T# cout $end
$var reg 1 U# c1 $end
$var reg 1 V# c2 $end
$var reg 1 W# c3 $end
$scope module fa1 $end
$var reg 1 X# a $end
$var reg 1 Y# b $end
$var reg 1 Z# cin $end
$var reg 1 [# s $end
$var reg 1 \# cout $end
$upscope $end
$scope module fa2 $end
$var reg 1 ]# a $end
$var reg 1 ^# b $end
$var reg 1 _# cin $end
$var reg 1 `# s $end
$var reg 1 a# cout $end
$upscope $end
$scope module fa3 $end
$var reg 1 b# a $end
$var reg 1 c# b $end
$var reg 1 d# cin $end
$var reg 1 e# s $end
$var reg 1 f# cout $end
$upscope $end
$scope module fa4 $end
$var reg 1 g# a $end
$var reg 1 h# b $end
$var reg 1 i# cin $end
$var reg 1 j# s $end
$var reg 1 k# cout $end
$upscope $end
$upscope $end
$upscope $end
$upscope $end
$enddefinitions $end
#0
bUUUUUUUUUUUUUUUUUUUUUUUUUUUUUUUU !
bUUUUUUUUUUUUUUUUUUUUUUUUUUUUUUUU "
0#
b00 $
bUUUUUUUUUUUUUUUUUUUUUUUUUUUUUUUU %
U&
0'
0(
0)
0*
0+
bUUUUUUUUUUUUUUUUUUUUUUUUUUUUUUUU ,
bUUUUUUUUUUUUUUUUUUUUUUUUUUUUUUUU -
0.
b00 /
bUUUUUUUUUUUUUUUUUUUUUUUUUUUUUUUU 0
U1
02
03
04
05
06
bUUUUUUUUUUUUUUUUUUUUUUUUUUUUUUUU 7
bUUUUUUUUUUUUUUUUUUUUUUUUUUUUUUUU 8
U9
bUUUUUUUUUUUUUUUUUUUUUUUUUUUUUUUU :
bUUUUUUUUUUUUUUUUUUUUUUUUUUUUUUUU ;
0<
bUUUUUUUUUUUUUUUUUUUUUUUUUUUUUUUU =
U>
U?
U@
UA
UB
UC
UD
UE
bUUUU F
bUUUU G
0H
bUUUU I
UJ
UK
UL
UM
UN
UO
0P
UQ
UR
US
UT
UU
UV
UW
UX
UY
UZ
U[
U\
U]
U^
U_
U`
Ua
bUUUU b
bUUUU c
Ud
bUUUU e
Uf
Ug
Uh
Ui
Uj
Uk
Ul
Um
Un
Uo
Up
Uq
Ur
Us
Ut
Uu
Uv
Uw
Ux
Uy
Uz
U{
U|
U}
bUUUU !"
bUUUU ""
U#"
bUUUU $"
U%"
U&"
U'"
U("
U)"
U*"
U+"
U,"
U-"
U."
U/"
U0"
U1"
U2"
U3"
U4"
U5"
U6"
U7"
U8"
U9"
U:"
U;"
U<"
bUUUU ="
bUUUU >"
U?"
bUUUU @"
UA"
UB"
UC"
UD"
UE"
UF"
UG"
UH"
UI"
UJ"
UK"
UL"
UM"
UN"
UO"
UP"
UQ"
UR"
US"
UT"
UU"
UV"
UW"
UX"
bUUUU Y"
bUUUU Z"
U["
bUUUU \"
U]"
U^"
U_"
U`"
Ua"
Ub"
Uc"
Ud"
Ue"
Uf"
Ug"
Uh"
Ui"
Uj"
Uk"
Ul"
Um"
Un"
Uo"
Up"
Uq"
Ur"
Us"
Ut"
bUUUU u"
bUUUU v"
Uw"
bUUUU x"
Uy"
Uz"
U{"
U|"
U}"
U!#
U"#
U##
U$#
U%#
U&#
U'#
U(#
U)#
U*#
U+#
U,#
U-#
U.#
U/#
U0#
U1#
U2#
U3#
bUUUU 4#
bUUUU 5#
U6#
bUUUU 7#
U8#
U9#
U:#
U;#
U<#
U=#
U>#
U?#
U@#
UA#
UB#
UC#
UD#
UE#
UF#
UG#
UH#
UI#
UJ#
UK#
UL#
UM#
UN#
UO#
bUUUU P#
bUUUU Q#
UR#
bUUUU S#
UT#
UU#
UV#
UW#
UX#
UY#
UZ#
U[#
U\#
U]#
U^#
U_#
U`#
Ua#
Ub#
Uc#
Ud#
Ue#
Uf#
Ug#
Uh#
Ui#
Uj#
Uk#
#50000000
b00000000000000000000000000001111 !
b00000000000000000000000000000001 "
b00000000000000000000000000010000 %
0&
b00000000000000000000000000001111 ,
b00000000000000000000000000000001 -
b00000000000000000000000000010000 0
01
b00000000000000000000000000010000 7
b00000000000000000000000000010000 8
09
b00000000000000000000000000001111 :
b00000000000000000000000000000001 ;
b00000000000000000000000000010000 =
0>
1?
0@
0A
0B
0C
0D
0E
b1111 F
b0001 G
b0000 I
1J
1K
1L
1M
1N
1O
0Q
1R
1S
0T
1U
0V
1W
1X
0Y
1Z
0[
1\
1]
0^
1_
0`
1a
b0000 b
b0000 c
1d
b0001 e
0f
0g
0h
0i
0j
0k
1l
1m
0n
0o
0p
0q
0r
0s
0t
0u
0v
0w
0x
0y
0z
0{
0|
0}
b0000 !"
b0000 ""
0#"
b0000 $"
0%"
0&"
0'"
0("
0)"
0*"
0+"
0,"
0-"
0."
0/"
00"
01"
02"
03"
04"
05"
06"
07"
08"
09"
0:"
0;"
0<"
b0000 ="
b0000 >"
0?"
b0000 @"
0A"
0B"
0C"
0D"
0E"
0F"
0G"
0H"
0I"
0J"
0K"
0L"
0M"
0N"
0O"
0P"
0Q"
0R"
0S"
0T"
0U"
0V"
0W"
0X"
b0000 Y"
b0000 Z"
0["
b0000 \"
0]"
0^"
0_"
0`"
0a"
0b"
0c"
0d"
0e"
0f"
0g"
0h"
0i"
0j"
0k"
0l"
0m"
0n"
0o"
0p"
0q"
0r"
0s"
0t"
b0000 u"
b0000 v"
0w"
b0000 x"
0y"
0z"
0{"
0|"
0}"
0!#
0"#
0##
0$#
0%#
0&#
0'#
0(#
0)#
0*#
0+#
0,#
0-#
0.#
0/#
00#
01#
02#
03#
b0000 4#
b0000 5#
06#
b0000 7#
08#
09#
0:#
0;#
0<#
0=#
0>#
0?#
0@#
0A#
0B#
0C#
0D#
0E#
0F#
0G#
0H#
0I#
0J#
0K#
0L#
0M#
0N#
0O#
b0000 P#
b0000 Q#
0R#
b0000 S#
0T#
0U#
0V#
0W#
0X#
0Y#
0Z#
0[#
0\#
0]#
0^#
0_#
0`#
0a#
0b#
0c#
0d#
0e#
0f#
0g#
0h#
0i#
0j#
0k#
#100000000
b00000000000000000000000000001010 "
b00000000000000000000000000011001 %
b00000000000000000000000000001010 -
b00000000000000000000000000011001 0
b00000000000000000000000000011001 7
b00000000000000000000000000011001 8
b00000000000000000000000000001010 ;
b00000000000000000000000000011001 =
b1010 G
b1001 I
0K
0O
1Q
0R
1T
0U
0V
1^
1`
#150000000
b00000000000001000000000000001111 !
b00010000000001000000000000001101 "
b00010000000010000000000000011100 %
b00000000000001000000000000001111 ,
b00010000000001000000000000001101 -
b00010000000010000000000000011100 0
b00010000000010000000000000011100 7
b00010000000010000000000000011100 8
b00000000000001000000000000001111 :
b00010000000001000000000000001101 ;
b00010000000010000000000000011100 =
b1101 G
b1100 I
1K
1L
1O
0Q
1R
0T
1U
0V
1W
1Y
1Z
1[
b0100 Y"
b0100 Z"
b1000 \"
1`"
1k"
1l"
1o"
1r"
1s"
b0001 Q#
b0001 S#
1Y#
1[#
#200000000
b11111111111111111111111111111111 !
b00000000000000000000000000000001 "
b00000000000000000000000000000000 %
1&
1'
0(
b11111111111111111111111111111111 ,
b00000000000000000000000000000001 -
b00000000000000000000000000000000 0
11
12
03
b00000000000000000000000000000000 7
b00000000000000000000000000000000 8
19
b11111111111111111111111111111111 :
b00000000000000000000000000000001 ;
b00000000000000000000000000000000 =
1>
1@
1A
1B
1C
1D
1E
b0001 G
b0000 I
0Y
0[
0^
0`
b1111 b
b0000 e
1f
1g
1h
1i
1j
0m
1n
1o
1q
0r
1s
1t
1v
0w
1x
1y
1{
0|
1}
b1111 !"
1#"
b0000 $"
1%"
1&"
1'"
1("
1)"
1+"
0,"
1-"
1."
10"
01"
12"
13"
15"
06"
17"
18"
1:"
0;"
1<"
b1111 ="
1?"
b0000 @"
1A"
1B"
1C"
1D"
1E"
1G"
0H"
1I"
1J"
1L"
0M"
1N"
1O"
1Q"
0R"
1S"
1T"
1V"
0W"
1X"
b1111 Y"
b0000 Z"
1["
b0000 \"
1]"
1^"
1_"
1`"
1a"
1c"
0d"
1e"
1f"
1h"
0i"
1j"
0l"
1m"
0n"
1o"
1p"
1r"
0s"
1t"
b1111 u"
1w"
b0000 x"
1y"
1z"
1{"
1|"
1}"
1"#
0##
1$#
1%#
1'#
0(#
1)#
1*#
1,#
0-#
1.#
1/#
11#
02#
13#
b1111 4#
16#
b0000 7#
18#
19#
1:#
1;#
1<#
1>#
0?#
1@#
1A#
1C#
0D#
1E#
1F#
1H#
0I#
1J#
1K#
1M#
0N#
1O#
b1111 P#
b0000 Q#
1R#
b0000 S#
1T#
1U#
1V#
1W#
1X#
0Y#
1Z#
0[#
1\#
1]#
1_#
0`#
1a#
1b#
1d#
0e#
1f#
1g#
1i#
0j#
1k#
#250000000
b11111111111111111111111111111111 "
b11111111111111111111111111111110 %
0'
1(
0)
b11111111111111111111111111111111 -
b11111111111111111111111111111110 0
02
13
04
b11111111111111111111111111111110 7
b11111111111111111111111111111110 8
b11111111111111111111111111111111 ;
b11111111111111111111111111111110 =
b1111 G
b1110 I
1T
1V
1Y
1[
1^
1`
b1111 c
b1111 e
1k
1m
1p
1r
1u
1w
1z
1|
b1111 ""
b1111 $"
1*"
1,"
1/"
11"
14"
16"
19"
1;"
b1111 >"
b1111 @"
1F"
1H"
1K"
1M"
1P"
1R"
1U"
1W"
b1111 Z"
b1111 \"
1b"
1d"
1g"
1i"
1l"
1n"
1q"
1s"
b1111 v"
b1111 x"
1!#
1##
1&#
1(#
1+#
1-#
10#
12#
b1111 5#
b1111 7#
1=#
1?#
1B#
1D#
1G#
1I#
1L#
1N#
b1111 Q#
b1111 S#
1Y#
1[#
1^#
1`#
1c#
1e#
1h#
1j#
#300000000
#350000000
#400000000
b01111111111111111111111111111111 !
b00000000000000000000000000000001 "
b10000000000000000000000000000000 %
0&
1)
b01111111111111111111111111111111 ,
b00000000000000000000000000000001 -
b10000000000000000000000000000000 0
01
14
b10000000000000000000000000000000 7
b10000000000000000000000000000000 8
09
b01111111111111111111111111111111 :
b00000000000000000000000000000001 ;
b10000000000000000000000000000000 =
0>
b0001 G
b0000 I
0T
0V
0Y
0[
0^
0`
b0000 c
b0000 e
0k
0m
0p
0r
0u
0w
0z
0|
b0000 ""
b0000 $"
0*"
0,"
0/"
01"
04"
06"
09"
0;"
b0000 >"
b0000 @"
0F"
0H"
0K"
0M"
0P"
0R"
0U"
0W"
b0000 Z"
b0000 \"
0b"
0d"
0g"
0i"
0l"
0n"
0q"
0s"
b0000 v"
b0000 x"
0!#
0##
0&#
0(#
0+#
0-#
00#
02#
b0000 5#
b0000 7#
0=#
0?#
0B#
0D#
0G#
0I#
0L#
0N#
b0111 P#
b0000 Q#
b1000 S#
0T#
0Y#
0[#
0^#
0`#
0c#
0e#
0g#
0h#
0k#
#420000000
b01 $
b00000000000000000000000000000001 %
0(
0)
b01 /
b00000000000000000000000000000001 0
03
04
b00000000000000000000000000000001 7
#450000000
b00000000000000000000000000001111 !
b00000000000000000000000000001111 ,
b00000000000000000000000000010000 8
b00000000000000000000000000001111 :
b00000000000000000000000000010000 =
0@
0A
0B
0C
0D
0E
b0000 b
b0001 e
0f
0g
0h
0i
0j
1m
0n
0o
0q
0r
0s
0t
0v
0w
0x
0y
0{
0|
0}
b0000 !"
0#"
b0000 $"
0%"
0&"
0'"
0("
0)"
0+"
0,"
0-"
0."
00"
01"
02"
03"
05"
06"
07"
08"
0:"
0;"
0<"
b0000 ="
0?"
b0000 @"
0A"
0B"
0C"
0D"
0E"
0G"
0H"
0I"
0J"
0L"
0M"
0N"
0O"
0Q"
0R"
0S"
0T"
0V"
0W"
0X"
b0000 Y"
0["
b0000 \"
0]"
0^"
0_"
0`"
0a"
0c"
0d"
0e"
0f"
0h"
0i"
0j"
0k"
0m"
0n"
0o"
0p"
0r"
0s"
0t"
b0000 u"
0w"
b0000 x"
0y"
0z"
0{"
0|"
0}"
0"#
0##
0$#
0%#
0'#
0(#
0)#
0*#
0,#
0-#
0.#
0/#
01#
02#
03#
b0000 4#
06#
b0000 7#
08#
09#
0:#
0;#
0<#
0>#
0?#
0@#
0A#
0C#
0D#
0E#
0F#
0H#
0I#
0J#
0K#
0M#
0N#
0O#
b0000 P#
0R#
b0000 S#
0U#
0V#
0W#
0X#
0Z#
0[#
0\#
0]#
0_#
0`#
0a#
0b#
0d#
0e#
0f#
0i#
0j#
#500000000
b00000000000000000000000000001010 "
b00000000000000000000000000001010 %
b00000000000000000000000000001010 -
b00000000000000000000000000001010 0
b00000000000000000000000000001010 7
b00000000000000000000000000011001 8
b00000000000000000000000000001010 ;
b00000000000000000000000000011001 =
b1010 G
b1001 I
0K
0O
1Q
0R
1T
0U
0V
1^
1`
#520000000
b10 $
b00000000000000000000000000001111 %
b10 /
b00000000000000000000000000001111 0
b00000000000000000000000000001111 7
#550000000
b00000000000001000000000000001111 !
b00000000000000000000000000000001 "
b00000000000001000000000000001111 %
b00000000000001000000000000001111 ,
b00000000000000000000000000000001 -
b00000000000001000000000000001111 0
b00000000000001000000000000001111 7
b00000000000001000000000000010000 8
b00000000000001000000000000001111 :
b00000000000000000000000000000001 ;
b00000000000001000000000000010000 =
1?
b0001 G
b0000 I
1J
1K
1L
1M
1O
0Q
1R
0T
1U
0V
1W
1Z
0[
1\
0^
1_
0`
1a
1d
b0001 e
1l
1m
b0100 Y"
b0100 \"
1k"
1n"
#600000000
b11111111111111111111111111111111 !
b11111111111111111111111111111111 "
b11111111111111111111111111111111 %
b11111111111111111111111111111111 ,
b11111111111111111111111111111111 -
b11111111111111111111111111111111 0
b11111111111111111111111111111111 7
b11111111111111111111111111111110 8
19
b11111111111111111111111111111111 :
b11111111111111111111111111111111 ;
b11111111111111111111111111111110 =
1>
1@
1A
1B
1C
1D
1E
b1111 G
b1110 I
1T
1V
1Y
1[
1^
1`
b1111 b
b1111 c
b1111 e
1f
1g
1h
1i
1j
1k
1n
1o
1p
1q
1r
1s
1t
1u
1v
1w
1x
1y
1z
1{
1|
1}
b1111 !"
b1111 ""
1#"
b1111 $"
1%"
1&"
1'"
1("
1)"
1*"
1+"
1,"
1-"
1."
1/"
10"
11"
12"
13"
14"
15"
16"
17"
18"
19"
1:"
1;"
1<"
b1111 ="
b1111 >"
1?"
b1111 @"
1A"
1B"
1C"
1D"
1E"
1F"
1G"
1H"
1I"
1J"
1K"
1L"
1M"
1N"
1O"
1P"
1Q"
1R"
1S"
1T"
1U"
1V"
1W"
1X"
b1111 Y"
b1111 Z"
1["
b1111 \"
1]"
1^"
1_"
1`"
1a"
1b"
1c"
1d"
1e"
1f"
1g"
1h"
1i"
1j"
1l"
1m"
1n"
1o"
1p"
1q"
1r"
1s"
1t"
b1111 u"
b1111 v"
1w"
b1111 x"
1y"
1z"
1{"
1|"
1}"
1!#
1"#
1##
1$#
1%#
1&#
1'#
1(#
1)#
1*#
1+#
1,#
1-#
1.#
1/#
10#
11#
12#
13#
b1111 4#
b1111 5#
16#
b1111 7#
18#
19#
1:#
1;#
1<#
1=#
1>#
1?#
1@#
1A#
1B#
1C#
1D#
1E#
1F#
1G#
1H#
1I#
1J#
1K#
1L#
1M#
1N#
1O#
b1111 P#
b1111 Q#
1R#
b1111 S#
1T#
1U#
1V#
1W#
1X#
1Y#
1Z#
1[#
1\#
1]#
1^#
1_#
1`#
1a#
1b#
1c#
1d#
1e#
1f#
1g#
1h#
1i#
1j#
1k#
#620000000
b11 $
b00000000000000000000000000000000 %
1'
b11 /
b00000000000000000000000000000000 0
12
b00000000000000000000000000000000 7
#650000000
b00000000000001000000000000001111 !
b00000000000000000000000000000001 "
b00000000000001000000000000001110 %
0'
b00000000000001000000000000001111 ,
b00000000000000000000000000000001 -
b00000000000001000000000000001110 0
02
b00000000000001000000000000001110 7
b00000000000001000000000000010000 8
09
b00000000000001000000000000001111 :
b00000000000000000000000000000001 ;
b00000000000001000000000000010000 =
0>
0@
0A
0B
0C
0D
0E
b0001 G
b0000 I
0T
0V
0Y
0[
0^
0`
b0000 b
b0000 c
b0001 e
0f
0g
0h
0i
0j
0k
0n
0o
0p
0q
0r
0s
0t
0u
0v
0w
0x
0y
0z
0{
0|
0}
b0000 !"
b0000 ""
0#"
b0000 $"
0%"
0&"
0'"
0("
0)"
0*"
0+"
0,"
0-"
0."
0/"
00"
01"
02"
03"
04"
05"
06"
07"
08"
09"
0:"
0;"
0<"
b0000 ="
b0000 >"
0?"
b0000 @"
0A"
0B"
0C"
0D"
0E"
0F"
0G"
0H"
0I"
0J"
0K"
0L"
0M"
0N"
0O"
0P"
0Q"
0R"
0S"
0T"
0U"
0V"
0W"
0X"
b0100 Y"
b0000 Z"
0["
b0100 \"
0]"
0^"
0_"
0`"
0a"
0b"
0c"
0d"
0e"
0f"
0g"
0h"
0i"
0j"
0l"
0m"
1n"
0o"
0p"
0q"
0r"
0s"
0t"
b0000 u"
b0000 v"
0w"
b0000 x"
0y"
0z"
0{"
0|"
0}"
0!#
0"#
0##
0$#
0%#
0&#
0'#
0(#
0)#
0*#
0+#
0,#
0-#
0.#
0/#
00#
01#
02#
03#
b0000 4#
b0000 5#
06#
b0000 7#
08#
09#
0:#
0;#
0<#
0=#
0>#
0?#
0@#
0A#
0B#
0C#
0D#
0E#
0F#
0G#
0H#
0I#
0J#
0K#
0L#
0M#
0N#
0O#
b0000 P#
b0000 Q#
0R#
b0000 S#
0T#
0U#
0V#
0W#
0X#
0Y#
0Z#
0[#
0\#
0]#
0^#
0_#
0`#
0a#
0b#
0c#
0d#
0e#
0f#
0g#
0h#
0i#
0j#
0k#
#700000000
b11111111111111111111111111111111 !
b11111111111111111111111111111111 "
b00000000000000000000000000000000 %
1'
b11111111111111111111111111111111 ,
b11111111111111111111111111111111 -
b00000000000000000000000000000000 0
12
b00000000000000000000000000000000 7
b11111111111111111111111111111110 8
19
b11111111111111111111111111111111 :
b11111111111111111111111111111111 ;
b11111111111111111111111111111110 =
1>
1@
1A
1B
1C
1D
1E
b1111 G
b1110 I
1T
1V
1Y
1[
1^
1`
b1111 b
b1111 c
b1111 e
1f
1g
1h
1i
1j
1k
1n
1o
1p
1q
1r
1s
1t
1u
1v
1w
1x
1y
1z
1{
1|
1}
b1111 !"
b1111 ""
1#"
b1111 $"
1%"
1&"
1'"
1("
1)"
1*"
1+"
1,"
1-"
1."
1/"
10"
11"
12"
13"
14"
15"
16"
17"
18"
19"
1:"
1;"
1<"
b1111 ="
b1111 >"
1?"
b1111 @"
1A"
1B"
1C"
1D"
1E"
1F"
1G"
1H"
1I"
1J"
1K"
1L"
1M"
1N"
1O"
1P"
1Q"
1R"
1S"
1T"
1U"
1V"
1W"
1X"
b1111 Y"
b1111 Z"
1["
b1111 \"
1]"
1^"
1_"
1`"
1a"
1b"
1c"
1d"
1e"
1f"
1g"
1h"
1i"
1j"
1l"
1m"
1n"
1o"
1p"
1q"
1r"
1s"
1t"
b1111 u"
b1111 v"
1w"
b1111 x"
1y"
1z"
1{"
1|"
1}"
1!#
1"#
1##
1$#
1%#
1&#
1'#
1(#
1)#
1*#
1+#
1,#
1-#
1.#
1/#
10#
11#
12#
13#
b1111 4#
b1111 5#
16#
b1111 7#
18#
19#
1:#
1;#
1<#
1=#
1>#
1?#
1@#
1A#
1B#
1C#
1D#
1E#
1F#
1G#
1H#
1I#
1J#
1K#
1L#
1M#
1N#
1O#
b1111 P#
b1111 Q#
1R#
b1111 S#
1T#
1U#
1V#
1W#
1X#
1Y#
1Z#
1[#
1\#
1]#
1^#
1_#
1`#
1a#
1b#
1c#
1d#
1e#
1f#
1g#
1h#
1i#
1j#
1k#
